{
    "name": "CustomReports",
    "description": "Pull out the information you need in order to be successful. Develop your custom strategy to meet your individualized goals while saving money & time.",
    "version": "4.0.7",
    "theme": false,
    "require": {
        "matomo": ">=4.0.0-rc7,<5.0.0-b1"
    },
    "authors": [
        {
            "name": "InnoCraft",
            "email": "contact@innocraft.com",
            "homepage": "https:\/\/www.innocraft.com"
        }
    ],
    "price": {
        "base": 200
    },
     "preview": {
       "video_url": "https://www.youtube-nocookie.com/embed/Ss0jtGLaeDM",
       "demo_url": "https://demo.matomo.cloud/index.php?module=CoreHome&action=index&idSite=1&period=day&date=yesterday#?idSite=1&period=day&date=yesterday&segment=&category=CustomReports_CustomReports&subcategory=2"
    },
    "homepage": "https:\/\/www.innocraft.com",
    "license": "InnoCraft EULA",
    "keywords": [
        "custom",
        "reports",
        "filter",
        "segment"
    ]
}
